<?xml version="1.0" encoding="UTF-8"?>
<robot generator="Robot 6.1.1 (Python 3.11.4 on linux)" generated="20230809 14:57:21.162" rpa="false" schemaversion="4">
<suite id="s1" name="Get Delete" source="/home/afzhal-ahmed-s/PycharmProjects/RobotAPI automation/AllCases/Get_Delete">
<suite id="s1-s1" name="TC 001 Get Request" source="/home/afzhal-ahmed-s/PycharmProjects/RobotAPI automation/AllCases/Get_Delete/TC_001_Get_Request.robot">
<test id="s1-s1-t1" name="TC_001_Get_Request" line="8">
<kw name="Create Session" library="RequestsLibrary">
<arg>Get_Student_Details</arg>
<arg>${Base_URL}</arg>
<doc>Create Session: create a HTTP session to a server</doc>
<msg timestamp="20230809 14:57:21.471" level="INFO">Creating Session using : alias=Get_Student_Details, url=http://www.testingworldapi.com, headers={},                     cookies={}, auth=None, timeout=None, proxies=None, verify=False,                     debug=0 </msg>
<status status="PASS" starttime="20230809 14:57:21.469" endtime="20230809 14:57:21.472"/>
</kw>
<kw name="GET On Session" library="RequestsLibrary">
<var>${response}</var>
<arg>Get_Student_Details</arg>
<arg>api/sudentDetails</arg>
<doc>Sends a GET request on a previously created HTTP Session.</doc>
<msg timestamp="20230809 14:57:24.300" level="INFO">GET Request : url=http://www.testingworldapi.com/api/sudentDetails (redirected) 
 path_url=/api/sudentDetails 
 headers={'User-Agent': 'python-requests/2.31.0', 'Accept-Encoding': 'gzip, deflate', 'Accept': '*/*', 'Connection': 'keep-alive'} 
 body=None 
 </msg>
<msg timestamp="20230809 14:57:24.300" level="INFO">GET Response : url=http://ww1.testingworldapi.com/?sub1=f1e562ae-3696-11ee-bde8-217d04ff899c 
 status=403, reason=Forbidden 
 headers={'date': 'Wed, 09 Aug 2023 09:27:24 GMT', 'content-type': 'text/html', 'transfer-encoding': 'chunked', 'vary': 'Accept-Encoding', 'server': 'NginX', 'content-encoding': 'gzip'} 
 body=&lt;html&gt;
&lt;head&gt;&lt;title&gt;403 Forbidden&lt;/title&gt;&lt;/head&gt;
&lt;body&gt;
&lt;center&gt;&lt;h1&gt;403 Forbidden&lt;/h1&gt;&lt;/center&gt;
&lt;hr&gt;&lt;center&gt;openresty&lt;/center&gt;
&lt;/body&gt;
&lt;/html&gt;
 
 </msg>
<msg timestamp="20230809 14:57:24.301" level="FAIL">HTTPError: 403 Client Error: Forbidden for url: http://ww1.testingworldapi.com/?sub1=f1e562ae-3696-11ee-bde8-217d04ff899c</msg>
<status status="FAIL" starttime="20230809 14:57:21.473" endtime="20230809 14:57:24.305"/>
</kw>
<kw name="Log To Console" library="BuiltIn">
<arg>${Base_URL}</arg>
<doc>Logs the given message to the console.</doc>
<status status="NOT RUN" starttime="20230809 14:57:24.305" endtime="20230809 14:57:24.306"/>
</kw>
<kw name="Log To Console" library="BuiltIn">
<arg>${response.status_code}</arg>
<doc>Logs the given message to the console.</doc>
<status status="NOT RUN" starttime="20230809 14:57:24.306" endtime="20230809 14:57:24.306"/>
</kw>
<kw name="Log To Console" library="BuiltIn">
<arg>${response.content}</arg>
<doc>Logs the given message to the console.</doc>
<status status="NOT RUN" starttime="20230809 14:57:24.307" endtime="20230809 14:57:24.307"/>
</kw>
<status status="FAIL" starttime="20230809 14:57:21.467" endtime="20230809 14:57:24.308">HTTPError: 403 Client Error: Forbidden for url: http://ww1.testingworldapi.com/?sub1=f1e562ae-3696-11ee-bde8-217d04ff899c</status>
</test>
<status status="FAIL" starttime="20230809 14:57:21.234" endtime="20230809 14:57:24.310"/>
</suite>
<suite id="s1-s2" name="TC 002 Get Request with ID" source="/home/afzhal-ahmed-s/PycharmProjects/RobotAPI automation/AllCases/Get_Delete/TC_002_Get_Request_with_ID.robot">
<test id="s1-s2-t1" name="TC_001_Fetch_Student_details_by_ID" line="11">
<kw name="Create Session" library="RequestsLibrary">
<arg>FetchData</arg>
<arg>${Base_URL}</arg>
<doc>Create Session: create a HTTP session to a server</doc>
<msg timestamp="20230809 14:57:24.633" level="INFO">Creating Session using : alias=FetchData, url=http://www.testingworldapi.com/, headers={},                     cookies={}, auth=None, timeout=None, proxies=None, verify=False,                     debug=0 </msg>
<status status="PASS" starttime="20230809 14:57:24.631" endtime="20230809 14:57:24.634"/>
</kw>
<kw name="GET On Session" library="RequestsLibrary">
<var>${response}</var>
<arg>FetchData</arg>
<arg>api/sudentDetails/${Student_ID}</arg>
<doc>Sends a GET request on a previously created HTTP Session.</doc>
<msg timestamp="20230809 14:57:25.275" level="INFO">GET Request : url=http://www.testingworldapi.com/api/sudentDetails/2 
 path_url=/api/sudentDetails/2 
 headers={'User-Agent': 'python-requests/2.31.0', 'Accept-Encoding': 'gzip, deflate', 'Accept': '*/*', 'Connection': 'keep-alive'} 
 body=None 
 </msg>
<msg timestamp="20230809 14:57:25.276" level="INFO">GET Response : url=http://www.testingworldapi.com/api/sudentDetails/2 
 status=200, reason=OK 
 headers={'accept-ch': 'Sec-CH-UA, Sec-CH-UA-Platform, Sec-CH-UA-Platform-Version, Sec-CH-UA-Mobile', 'cache-control': 'max-age=0, private, must-revalidate', 'connection': 'close', 'content-length': '503', 'content-type': 'text/html; charset=utf-8', 'date': 'Wed, 09 Aug 2023 09:27:24 GMT', 'server': 'nginx', 'set-cookie': 'sid=f35b0846-3696-11ee-b33d-217d17bc80b9; path=/; domain=.testingworldapi.com; expires=Mon, 27 Aug 2091 12:41:32 GMT; max-age=2147483647; HttpOnly'} 
 body=&lt;html&gt;&lt;head&gt;&lt;title&gt;Loading...&lt;/title&gt;&lt;/head&gt;&lt;body&gt;&lt;script type='text/javascript'&gt;window.location.replace('http://www.testingworldapi.com/api/sudentDetails/2?ch=1&amp;js=eyJhbGciOiJIUzI1NiIsInR5cCI6IkpXVCJ9.eyJhdWQiOiJKb2tlbiIsImV4cCI6MTY5MTU4MDQ0NSwiaWF0IjoxNjkxNTczMjQ1LCJpc3MiOiJKb2tlbiIsImpzIjoxLCJqdGkiOiIydHNxcHByaGltMHJpZmJyOWcxM29qa2ciLCJuYmYiOjE2OTE1NzMyNDUsInRzIjoxNjkxNTczMjQ1MDk3MTY5fQ.uOD1o0rGQhapRxvrmRVtjYjvO9GCVtB22cER3OjulrQ&amp;sid=f35b0846-3696-11ee-b33d-217d17bc80b9');&lt;/script&gt;&lt;/body&gt;&lt;/html&gt; 
 </msg>
<msg timestamp="20230809 14:57:25.277" level="INFO">${response} = &lt;Response [200]&gt;</msg>
<status status="PASS" starttime="20230809 14:57:24.635" endtime="20230809 14:57:25.277"/>
</kw>
<kw name="Convert To String" library="BuiltIn">
<var>${actual_response_code}</var>
<arg>${response.status_code}</arg>
<doc>Converts the given item to a Unicode string.</doc>
<msg timestamp="20230809 14:57:25.282" level="INFO">${actual_response_code} = 200</msg>
<status status="PASS" starttime="20230809 14:57:25.278" endtime="20230809 14:57:25.282"/>
</kw>
<kw name="Log To Console" library="BuiltIn">
<arg>${Base_URL}</arg>
<doc>Logs the given message to the console.</doc>
<status status="PASS" starttime="20230809 14:57:25.283" endtime="20230809 14:57:25.284"/>
</kw>
<kw name="Log To Console" library="BuiltIn">
<arg>${response.content}</arg>
<doc>Logs the given message to the console.</doc>
<status status="PASS" starttime="20230809 14:57:25.285" endtime="20230809 14:57:25.288"/>
</kw>
<kw name="Should Be Equal" library="BuiltIn">
<arg>${actual_response_code}</arg>
<arg>200</arg>
<doc>Fails if the given objects are unequal.</doc>
<status status="PASS" starttime="20230809 14:57:25.289" endtime="20230809 14:57:25.291"/>
</kw>
<kw>
<var>${json_response}=</var>
<var>${response.content.json()}</var>
<msg timestamp="20230809 14:57:25.292" level="FAIL">Keyword name cannot be empty.</msg>
<status status="FAIL" starttime="20230809 14:57:25.291" endtime="20230809 14:57:25.292"/>
</kw>
<kw name="Get Value From Json" library="JSONLibrary">
<var>@{first_name_list}</var>
<arg>${json_response}</arg>
<arg>data.first_name</arg>
<doc>Get Value From JSON using JSONPath</doc>
<status status="NOT RUN" starttime="20230809 14:57:25.293" endtime="20230809 14:57:25.293"/>
</kw>
<kw name="Get From List" library="Collections">
<var>${first_name}</var>
<arg>${first_name_list}</arg>
<arg>0</arg>
<doc>Returns the value specified with an ``index`` from ``list``.</doc>
<status status="NOT RUN" starttime="20230809 14:57:25.294" endtime="20230809 14:57:25.295"/>
</kw>
<kw name="Log To Console" library="BuiltIn">
<arg>${first_name}</arg>
<doc>Logs the given message to the console.</doc>
<status status="NOT RUN" starttime="20230809 14:57:25.296" endtime="20230809 14:57:25.296"/>
</kw>
<kw name="Should Be Equal" library="BuiltIn">
<arg>${first_name}</arg>
<arg>Test1</arg>
<doc>Fails if the given objects are unequal.</doc>
<status status="NOT RUN" starttime="20230809 14:57:25.297" endtime="20230809 14:57:25.297"/>
</kw>
<kw name="Get Value From Json" library="JSONLibrary">
<var>@{last_name_list}</var>
<arg>${json_response}</arg>
<arg>data.last_name</arg>
<doc>Get Value From JSON using JSONPath</doc>
<status status="NOT RUN" starttime="20230809 14:57:25.298" endtime="20230809 14:57:25.298"/>
</kw>
<kw name="Get From List" library="Collections">
<var>${last_name}</var>
<arg>${last_name_list}</arg>
<arg>0</arg>
<doc>Returns the value specified with an ``index`` from ``list``.</doc>
<status status="NOT RUN" starttime="20230809 14:57:25.299" endtime="20230809 14:57:25.299"/>
</kw>
<kw name="Log To Console" library="BuiltIn">
<arg>${last_name}</arg>
<doc>Logs the given message to the console.</doc>
<status status="NOT RUN" starttime="20230809 14:57:25.301" endtime="20230809 14:57:25.301"/>
</kw>
<kw name="Should Be Equal" library="BuiltIn">
<arg>${last_name}</arg>
<arg>Automation</arg>
<doc>Fails if the given objects are unequal.</doc>
<status status="NOT RUN" starttime="20230809 14:57:25.302" endtime="20230809 14:57:25.302"/>
</kw>
<status status="FAIL" starttime="20230809 14:57:24.629" endtime="20230809 14:57:25.303">Keyword name cannot be empty.</status>
</test>
<test id="s1-s2-t2" name="TC_002_Fetch_Student_details_by_ID_2" line="31">
<kw name="Create Session" library="RequestsLibrary">
<arg>FetchData</arg>
<arg>${Base_URL}</arg>
<doc>Create Session: create a HTTP session to a server</doc>
<msg timestamp="20230809 14:57:25.307" level="INFO">Creating Session using : alias=FetchData, url=http://www.testingworldapi.com/, headers={},                     cookies={}, auth=None, timeout=None, proxies=None, verify=False,                     debug=0 </msg>
<status status="PASS" starttime="20230809 14:57:25.306" endtime="20230809 14:57:25.308"/>
</kw>
<kw name="GET On Session" library="RequestsLibrary">
<var>${response}</var>
<arg>FetchData</arg>
<arg>api/sudentDetails/${Student_ID}</arg>
<doc>Sends a GET request on a previously created HTTP Session.</doc>
<msg timestamp="20230809 14:57:25.884" level="INFO">GET Request : url=http://www.testingworldapi.com/api/sudentDetails/2 
 path_url=/api/sudentDetails/2 
 headers={'User-Agent': 'python-requests/2.31.0', 'Accept-Encoding': 'gzip, deflate', 'Accept': '*/*', 'Connection': 'keep-alive'} 
 body=None 
 </msg>
<msg timestamp="20230809 14:57:25.885" level="INFO">GET Response : url=http://www.testingworldapi.com/api/sudentDetails/2 
 status=200, reason=OK 
 headers={'accept-ch': 'Sec-CH-UA, Sec-CH-UA-Platform, Sec-CH-UA-Platform-Version, Sec-CH-UA-Mobile', 'cache-control': 'max-age=0, private, must-revalidate', 'connection': 'close', 'content-length': '503', 'content-type': 'text/html; charset=utf-8', 'date': 'Wed, 09 Aug 2023 09:27:25 GMT', 'server': 'nginx', 'set-cookie': 'sid=f3b78e90-3696-11ee-a625-217d5a50b209; path=/; domain=.testingworldapi.com; expires=Mon, 27 Aug 2091 12:41:32 GMT; max-age=2147483647; HttpOnly'} 
 body=&lt;html&gt;&lt;head&gt;&lt;title&gt;Loading...&lt;/title&gt;&lt;/head&gt;&lt;body&gt;&lt;script type='text/javascript'&gt;window.location.replace('http://www.testingworldapi.com/api/sudentDetails/2?ch=1&amp;js=eyJhbGciOiJIUzI1NiIsInR5cCI6IkpXVCJ9.eyJhdWQiOiJKb2tlbiIsImV4cCI6MTY5MTU4MDQ0NSwiaWF0IjoxNjkxNTczMjQ1LCJpc3MiOiJKb2tlbiIsImpzIjoxLCJqdGkiOiIydHNxcHBzbG45bzAxdXRhOXMxZms4MmUiLCJuYmYiOjE2OTE1NzMyNDUsInRzIjoxNjkxNTczMjQ1NzAzNjMxfQ.sTOSP7V2ZHCnjp955QnMJIMuab4F76e1mHaIXXldDm8&amp;sid=f3b78e90-3696-11ee-a625-217d5a50b209');&lt;/script&gt;&lt;/body&gt;&lt;/html&gt; 
 </msg>
<msg timestamp="20230809 14:57:25.885" level="INFO">${response} = &lt;Response [200]&gt;</msg>
<status status="PASS" starttime="20230809 14:57:25.309" endtime="20230809 14:57:25.885"/>
</kw>
<kw name="Convert To String" library="BuiltIn">
<var>${actual_response_code}</var>
<arg>${response.status_code}</arg>
<doc>Converts the given item to a Unicode string.</doc>
<msg timestamp="20230809 14:57:25.889" level="INFO">${actual_response_code} = 200</msg>
<status status="PASS" starttime="20230809 14:57:25.886" endtime="20230809 14:57:25.889"/>
</kw>
<kw name="Log To Console" library="BuiltIn">
<arg>${Base_URL}</arg>
<doc>Logs the given message to the console.</doc>
<status status="PASS" starttime="20230809 14:57:25.890" endtime="20230809 14:57:25.891"/>
</kw>
<kw name="Log To Console" library="BuiltIn">
<arg>${response.content}</arg>
<doc>Logs the given message to the console.</doc>
<status status="PASS" starttime="20230809 14:57:25.892" endtime="20230809 14:57:25.895"/>
</kw>
<kw name="Should Be Equal" library="BuiltIn">
<arg>${actual_response_code}</arg>
<arg>200</arg>
<doc>Fails if the given objects are unequal.</doc>
<status status="PASS" starttime="20230809 14:57:25.896" endtime="20230809 14:57:25.897"/>
</kw>
<status status="PASS" starttime="20230809 14:57:25.304" endtime="20230809 14:57:25.898"/>
</test>
<status status="FAIL" starttime="20230809 14:57:24.313" endtime="20230809 14:57:25.900"/>
</suite>
<suite id="s1-s3" name="TC 003 GET with param" source="/home/afzhal-ahmed-s/PycharmProjects/RobotAPI automation/AllCases/Get_Delete/TC_003_GET_with_param.robot">
<test id="s1-s3-t1" name="TC_003 Validate Get Request with Parameters" line="10">
<kw name="Create Session" library="RequestsLibrary">
<arg>Get_Param</arg>
<arg>${Base_URL}</arg>
<doc>Create Session: create a HTTP session to a server</doc>
<msg timestamp="20230809 14:57:25.921" level="INFO">Creating Session using : alias=Get_Param, url=https://reqres.in, headers={},                     cookies={}, auth=None, timeout=None, proxies=None, verify=False,                     debug=0 </msg>
<status status="PASS" starttime="20230809 14:57:25.920" endtime="20230809 14:57:25.922"/>
</kw>
<kw name="Create Dictionary" library="BuiltIn">
<var>&amp;{param}</var>
<arg>page=2</arg>
<doc>Creates and returns a dictionary based on the given ``items``.</doc>
<msg timestamp="20230809 14:57:25.924" level="INFO">&amp;{param} = { page=2 }</msg>
<status status="PASS" starttime="20230809 14:57:25.922" endtime="20230809 14:57:25.925"/>
</kw>
<kw name="GET On Session" library="RequestsLibrary">
<var>${response}</var>
<arg>Get_Param</arg>
<arg>/api/users</arg>
<arg>params=${param}</arg>
<doc>Sends a GET request on a previously created HTTP Session.</doc>
<msg timestamp="20230809 14:57:26.261" level="INFO">GET Request : url=https://reqres.in/api/users?page=2 
 path_url=/api/users?page=2 
 headers={'User-Agent': 'python-requests/2.31.0', 'Accept-Encoding': 'gzip, deflate', 'Accept': '*/*', 'Connection': 'keep-alive'} 
 body=None 
 </msg>
<msg timestamp="20230809 14:57:26.261" level="INFO">GET Response : url=https://reqres.in/api/users?page=2 
 status=200, reason=OK 
 headers={'Date': 'Wed, 09 Aug 2023 09:27:26 GMT', 'Content-Type': 'application/json; charset=utf-8', 'Transfer-Encoding': 'chunked', 'Connection': 'keep-alive', 'X-Powered-By': 'Express', 'Access-Control-Allow-Origin': '*', 'Etag': 'W/"406-ut0vzoCuidvyMf8arZpMpJ6ZRDw"', 'Via': '1.1 vegur', 'Cache-Control': 'max-age=14400', 'CF-Cache-Status': 'HIT', 'Age': '4458', 'Report-To': '{"endpoints":[{"url":"https:\\/\\/a.nel.cloudflare.com\\/report\\/v3?s=Qg%2BQbqsgz1c3y5tRW2cvlEEOxbce%2FHMhsnf%2FSyC6tufDIpX%2FmVKyRP7bAUu8MMDJC4wemrEIgVw74VpL%2BJPgCZbC7jt5NZxQ6MFRHR6eiUN322fAgBJzOJy77pLkXiQ3%2BJjwOE2UqA%3D%3D"}],"group":"cf-nel","max_age":604800}', 'NEL': '{"success_fraction":0,"report_to":"cf-nel","max_age":604800}', 'Vary': 'Accept-Encoding', 'Server': 'cloudflare', 'CF-RAY': '7f3ef694af0c91cb-SIN', 'Content-Encoding': 'gzip'} 
 body={"page":2,"per_page":6,"total":12,"total_pages":2,"data":[{"id":7,"email":"michael.lawson@reqres.in","first_name":"Michael","last_name":"Lawson","avatar":"https://reqres.in/img/faces/7-image.jpg"},{"id":8,"email":"lindsay.ferguson@reqres.in","first_name":"Lindsay","last_name":"Ferguson","avatar":"https://reqres.in/img/faces/8-image.jpg"},{"id":9,"email":"tobias.funke@reqres.in","first_name":"Tobias","last_name":"Funke","avatar":"https://reqres.in/img/faces/9-image.jpg"},{"id":10,"email":"byron.fields@reqres.in","first_name":"Byron","last_name":"Fields","avatar":"https://reqres.in/img/faces/10-image.jpg"},{"id":11,"email":"george.edwards@reqres.in","first_name":"George","last_name":"Edwards","avatar":"https://reqres.in/img/faces/11-image.jpg"},{"id":12,"email":"rachel.howell@reqres.in","first_name":"Rachel","last_name":"Howell","avatar":"https://reqres.in/img/faces/12-image.jpg"}],"support":{"url":"https://reqres.in/#support-heading","text":"To keep ReqRes free, contributions towards server costs are appreciated!"}} 
 </msg>
<msg timestamp="20230809 14:57:26.262" level="INFO">/home/afzhal-ahmed-s/PycharmProjects/RobotAPI automation/venv/lib/python3.11/site-packages/urllib3/connectionpool.py:1095: InsecureRequestWarning: Unverified HTTPS request is being made to host 'reqres.in'. Adding certificate verification is strongly advised. See: https://urllib3.readthedocs.io/en/latest/advanced-usage.html#tls-warnings
  warnings.warn(</msg>
<msg timestamp="20230809 14:57:26.263" level="INFO">${response} = &lt;Response [200]&gt;</msg>
<status status="PASS" starttime="20230809 14:57:25.925" endtime="20230809 14:57:26.263"/>
</kw>
<kw name="Convert To String" library="BuiltIn">
<var>${actual_status_code}</var>
<arg>${response.status_code}</arg>
<doc>Converts the given item to a Unicode string.</doc>
<msg timestamp="20230809 14:57:26.265" level="INFO">${actual_status_code} = 200</msg>
<status status="PASS" starttime="20230809 14:57:26.263" endtime="20230809 14:57:26.265"/>
</kw>
<kw>
<var>${json_response}=</var>
<var>${response.content.json()}</var>
<msg timestamp="20230809 14:57:26.266" level="FAIL">Keyword name cannot be empty.</msg>
<status status="FAIL" starttime="20230809 14:57:26.266" endtime="20230809 14:57:26.266"/>
</kw>
<kw name="Get Value From Json" library="JSONLibrary">
<var>@{name_list}</var>
<arg>${json_response}</arg>
<arg>data[0].first_name</arg>
<doc>Get Value From JSON using JSONPath</doc>
<status status="NOT RUN" starttime="20230809 14:57:26.266" endtime="20230809 14:57:26.267"/>
</kw>
<kw name="Get From List" library="Collections">
<var>${name}</var>
<arg>${name_list}</arg>
<arg>0</arg>
<doc>Returns the value specified with an ``index`` from ``list``.</doc>
<status status="NOT RUN" starttime="20230809 14:57:26.267" endtime="20230809 14:57:26.267"/>
</kw>
<kw name="Should Be Equal" library="BuiltIn">
<arg>${actual_status_code}</arg>
<arg>200</arg>
<doc>Fails if the given objects are unequal.</doc>
<status status="NOT RUN" starttime="20230809 14:57:26.268" endtime="20230809 14:57:26.268"/>
</kw>
<kw name="Should Be Equal" library="BuiltIn">
<arg>${name}</arg>
<arg>Eve</arg>
<doc>Fails if the given objects are unequal.</doc>
<status status="NOT RUN" starttime="20230809 14:57:26.268" endtime="20230809 14:57:26.268"/>
</kw>
<kw name="Log To Console" library="BuiltIn">
<arg>${response.status_code}</arg>
<doc>Logs the given message to the console.</doc>
<status status="NOT RUN" starttime="20230809 14:57:26.269" endtime="20230809 14:57:26.269"/>
</kw>
<kw name="Log To Console" library="BuiltIn">
<arg>${response.content}</arg>
<doc>Logs the given message to the console.</doc>
<status status="NOT RUN" starttime="20230809 14:57:26.269" endtime="20230809 14:57:26.269"/>
</kw>
<status status="FAIL" starttime="20230809 14:57:25.918" endtime="20230809 14:57:26.270">Keyword name cannot be empty.</status>
</test>
<status status="FAIL" starttime="20230809 14:57:25.904" endtime="20230809 14:57:26.272"/>
</suite>
<suite id="s1-s4" name="TC 004 DELETE request" source="/home/afzhal-ahmed-s/PycharmProjects/RobotAPI automation/AllCases/Get_Delete/TC_004_DELETE_request.robot">
<test id="s1-s4-t1" name="TC_004 Validate Delete Request" line="13">
<kw name="Create Session" library="RequestsLibrary">
<arg>AppAccess</arg>
<arg>${Base_URL}</arg>
<doc>Create Session: create a HTTP session to a server</doc>
<msg timestamp="20230809 14:57:26.292" level="INFO">Creating Session using : alias=AppAccess, url=https://reqres.in, headers={},                     cookies={}, auth=None, timeout=None, proxies=None, verify=False,                     debug=0 </msg>
<status status="PASS" starttime="20230809 14:57:26.291" endtime="20230809 14:57:26.293"/>
</kw>
<kw name="DELETE On Session" library="RequestsLibrary">
<var>${response}</var>
<arg>AppAccess</arg>
<arg>/api/studentsDetails/1</arg>
<doc>Sends a DELETE request on a previously created HTTP Session.</doc>
<msg timestamp="20230809 14:57:26.962" level="INFO">DELETE Request : url=https://reqres.in/api/studentsDetails/1 
 path_url=/api/studentsDetails/1 
 headers={'User-Agent': 'python-requests/2.31.0', 'Accept-Encoding': 'gzip, deflate', 'Accept': '*/*', 'Connection': 'keep-alive', 'Content-Length': '0'} 
 body=None 
 </msg>
<msg timestamp="20230809 14:57:26.962" level="INFO">DELETE Response : url=https://reqres.in/api/studentsDetails/1 
 status=204, reason=No Content 
 headers={'Date': 'Wed, 09 Aug 2023 09:27:26 GMT', 'Content-Length': '0', 'Connection': 'keep-alive', 'X-Powered-By': 'Express', 'Access-Control-Allow-Origin': '*', 'Etag': 'W/"2-vyGp6PvFo4RvsFtPoIWeCReyIC8"', 'Via': '1.1 vegur', 'CF-Cache-Status': 'DYNAMIC', 'Report-To': '{"endpoints":[{"url":"https:\\/\\/a.nel.cloudflare.com\\/report\\/v3?s=enzKJ0oWLNsbc4vceIOEe8WyMnRM%2BNLT0bJIt6%2Bzt2MEmFv4GQMkVOfxmEaz0H2QyY9Mw4bs62BU56GoilKhUBjtBGH6gQg2n6gHnFixX6mBRISRt7lcSRHqpTROHBHhrSWVNCGDRA%3D%3D"}],"group":"cf-nel","max_age":604800}', 'NEL': '{"success_fraction":0,"report_to":"cf-nel","max_age":604800}', 'Server': 'cloudflare', 'CF-RAY': '7f3ef696df588965-SIN'} 
 body=None 
 </msg>
<msg timestamp="20230809 14:57:26.963" level="INFO">/home/afzhal-ahmed-s/PycharmProjects/RobotAPI automation/venv/lib/python3.11/site-packages/urllib3/connectionpool.py:1095: InsecureRequestWarning: Unverified HTTPS request is being made to host 'reqres.in'. Adding certificate verification is strongly advised. See: https://urllib3.readthedocs.io/en/latest/advanced-usage.html#tls-warnings
  warnings.warn(</msg>
<msg timestamp="20230809 14:57:26.965" level="INFO">${response} = &lt;Response [204]&gt;</msg>
<status status="PASS" starttime="20230809 14:57:26.294" endtime="20230809 14:57:26.965"/>
</kw>
<kw name="Convert To String" library="BuiltIn">
<var>${actual_status_code}</var>
<arg>${response.status_code}</arg>
<doc>Converts the given item to a Unicode string.</doc>
<msg timestamp="20230809 14:57:26.969" level="INFO">${actual_status_code} = 204</msg>
<status status="PASS" starttime="20230809 14:57:26.966" endtime="20230809 14:57:26.969"/>
</kw>
<kw name="Should Be Equal" library="BuiltIn">
<arg>${actual_status_code}</arg>
<arg>204</arg>
<doc>Fails if the given objects are unequal.</doc>
<status status="PASS" starttime="20230809 14:57:26.970" endtime="20230809 14:57:26.971"/>
</kw>
<kw name="Log To Console" library="BuiltIn">
<arg>${response.status_code}</arg>
<doc>Logs the given message to the console.</doc>
<status status="PASS" starttime="20230809 14:57:26.972" endtime="20230809 14:57:26.975"/>
</kw>
<kw name="Log To Console" library="BuiltIn">
<arg>${response.content}</arg>
<doc>Logs the given message to the console.</doc>
<status status="PASS" starttime="20230809 14:57:26.975" endtime="20230809 14:57:26.978"/>
</kw>
<status status="PASS" starttime="20230809 14:57:26.290" endtime="20230809 14:57:26.979"/>
</test>
<status status="PASS" starttime="20230809 14:57:26.275" endtime="20230809 14:57:26.981"/>
</suite>
<status status="FAIL" starttime="20230809 14:57:21.165" endtime="20230809 14:57:26.985"/>
</suite>
<statistics>
<total>
<stat pass="2" fail="3" skip="0">All Tests</stat>
</total>
<tag>
</tag>
<suite>
<stat pass="2" fail="3" skip="0" id="s1" name="Get Delete">Get Delete</stat>
<stat pass="0" fail="1" skip="0" id="s1-s1" name="TC 001 Get Request">Get Delete.TC 001 Get Request</stat>
<stat pass="1" fail="1" skip="0" id="s1-s2" name="TC 002 Get Request with ID">Get Delete.TC 002 Get Request with ID</stat>
<stat pass="0" fail="1" skip="0" id="s1-s3" name="TC 003 GET with param">Get Delete.TC 003 GET with param</stat>
<stat pass="1" fail="0" skip="0" id="s1-s4" name="TC 004 DELETE request">Get Delete.TC 004 DELETE request</stat>
</suite>
</statistics>
<errors>
</errors>
</robot>
